ZOTU1515	d:Bacteria(1.0000),p:Actinobacteria(1.0000),c:Thermoleophilia(1.0000),o:Solirubrobacterales(1.0000),f:Solirubrobacteraceae(0.9900),g:Solirubrobacter(0.9801)	+	d:Bacteria,p:Actinobacteria,c:Thermoleophilia,o:Solirubrobacterales,f:Solirubrobacteraceae,g:Solirubrobacter
ZOTU2615	d:Bacteria(1.0000),p:Acidobacteria(1.0000),c:Subgroup(1.0000)	+	d:Bacteria,p:Acidobacteria,c:Subgroup
ZOTU2640	d:Bacteria(1.0000),p:Acidobacteria(1.0000),c:Subgroup(1.0000)	+	d:Bacteria,p:Acidobacteria,c:Subgroup
ZOTU3831	d:Bacteria(1.0000),p:Actinobacteria(1.0000),c:Actinobacteria(1.0000),o:Streptomycetales(0.9900),f:Streptomycetaceae(0.9801),g:Streptomyces(0.9409)	+	d:Bacteria,p:Actinobacteria,c:Actinobacteria,o:Streptomycetales,f:Streptomycetaceae,g:Streptomyces
ZOTU2395	d:Bacteria(1.0000),p:Acidobacteria(1.0000),c:Subgroup(1.0000)	+	d:Bacteria,p:Acidobacteria,c:Subgroup
ZOTU6496	d:Bacteria(1.0000),p:Proteobacteria(1.0000),c:Alphaproteobacteria(1.0000),o:Sphingomonadales(1.0000),f:Sphingomonadaceae(0.9800),g:Sphingomonas(0.9604)	+	d:Bacteria,p:Proteobacteria,c:Alphaproteobacteria,o:Sphingomonadales,f:Sphingomonadaceae,g:Sphingomonas
ZOTU274	d:Bacteria(1.0000),p:Proteobacteria(1.0000),c:Alphaproteobacteria(1.0000),o:Rhizobiales(1.0000),f:Methylobacteriaceae(1.0000),g:Microvirga(0.9500)	+	d:Bacteria,p:Proteobacteria,c:Alphaproteobacteria,o:Rhizobiales,f:Methylobacteriaceae,g:Microvirga
ZOTU1461	d:Bacteria(1.0000),p:Proteobacteria(0.9900),c:Alphaproteobacteria(0.9801),o:Rhodospirillales(0.9703),f:Rhodospirillaceae(0.9315),g:Azospirillum(0.8290)	+	d:Bacteria,p:Proteobacteria,c:Alphaproteobacteria,o:Rhodospirillales,f:Rhodospirillaceae
ZOTU6603	d:Bacteria(1.0000),p:Proteobacteria(1.0000),c:Alphaproteobacteria(1.0000),o:Sphingomonadales(1.0000),f:Sphingomonadaceae(0.9600),g:Sphingomonas(0.8736)	+	d:Bacteria,p:Proteobacteria,c:Alphaproteobacteria,o:Sphingomonadales,f:Sphingomonadaceae,g:Sphingomonas
ZOTU210	d:Bacteria(1.0000),p:Chloroflexi(1.0000),c:KD4-96(1.0000)	+	d:Bacteria,p:Chloroflexi,c:KD4-96
